hw6.utf8
…
data<-data%>%
  select(1,3,5,6,11,32)
data<-data[-(1:3),]
names(data)<-c("breed","category","score","popularity","intelligence","size")
data<-data %>%
  na.omit(data)%>%
  mutate(category=as.factor(category),size=as.factor(size),score= as.numeric(score), popularity = as.numeric(popularity),intelligence = as.numeric(intelligence))%>%
  #42 because dumb is i think lower 50% which a score of 43 was in lower 50% and 41 was higher 50% of trainability 
  mutate(intelligence = ifelse(intelligence<42,"clever","dumb"))
data

## # A tibble: 87 x 6
##    breed                  category score popularity intelligence size  
##    <chr>                  <fct>    <dbl>      <dbl> <chr>        <fct> 
##  1 Border Collie          herding   3.64         45 clever       medium
##  2 Border Terrier         terrier   3.61         80 clever       small 
##  3 Brittany               sporting  3.54         30 clever       medium
##  4 Cairn Terrier          terrier   3.53         59 clever       small 
##  5 Welsh Springer Spaniel sporting  3.34        130 clever       medium
##  6 English Cocker Spaniel sporting  3.33         63 clever       medium
##  7 Cocker Spaniel         sporting  3.3          27 clever       small 
##  8 Papillon               toy       3.26         38 clever       small 
##  9 Australian Cattle Dog  herding   3.25         60 clever       medium
## 10 Shetland Sheepdog      herding   3.22         20 clever       small 
## # ... with 77 more rows
…
